BL_stratification
…
delta_bmi_df %>% 
  dplyr::mutate(bmi_c = case_when(
    delta_BMI_abs >= 2.5 ~ "H_BMI",
    delta_BMI_abs < 2.5 ~ "L_BMI"
  )) %>% 
  dplyr::select(record_id, bmi_c) %>% 
  dplyr::rename(link_var = record_id) %>% 
  dplyr::right_join(igc_df, by = "link_var") %>% 
  dplyr::filter(!is.na(bmi_c)) %>% 
  dplyr::mutate(group_bmi = paste(cat_var, bmi_c, sep = "_")) %>% 
  group_by(group_bmi) %>% 
  rstatix::wilcox_test(richness ~ long_var)

# A tibble: 24 × 10
   group_bmi  .y.   group1 group2    n1    n2 statistic     p p.adj p.adj.signif
 * <chr>      <chr> <chr>  <chr>  <int> <int>     <dbl> <dbl> <dbl> <chr>       
 1 bDRV_H_BMI rich… 0      24        10     3        15 0.364 1     ns          
 2 bDRV_H_BMI rich… 0      48        10    10        39 0.436 1     ns          
 3 bDRV_H_BMI rich… 0      96        10    10        42 0.579 1     ns          
 4 bDRV_H_BMI rich… 24     48         3    10         3 0.182 0.91  ns          
 5 bDRV_H_BMI rich… 24     96         3    10         2 0.121 0.726 ns          
 6 bDRV_H_BMI rich… 48     96        10    10        53 0.853 1     ns          
 7 bDRV_L_BMI rich… 0      24        10     6        32 0.875 1     ns          
 8 bDRV_L_BMI rich… 0      48        10     8        29 0.958 1     ns          
 9 bDRV_L_BMI rich… 0      96        10    10        35 0.447 1     ns          
10 bDRV_L_BMI rich… 24     48         6     8        17 0.937 1     ns          
# … with 14 more rows
…
