317_GeneRichness_Inflammation
…
deltas %>% 
  dplyr::filter(long_var == 96) %>% 
  dplyr::select(delta_richness, new_numvars) %>% 
  cor_test(use = "complete.obs") %>% 
  dplyr::filter()

# A tibble: 25 x 8
   var1           var2              cor statistic       p conf.~1 conf.~2 method
   <chr>          <chr>           <dbl>     <dbl>   <dbl>   <dbl>   <dbl> <chr> 
 1 delta_richness delta_richne~  1        3.25e+8 0        1        1     Pears~
 2 delta_richness delta_CRP     -0.01    -6.90e-2 0.945   -0.290    0.272 Pears~
 3 delta_richness delta_IL6     -0.03    -1.32e-1 0.896   -0.446    0.397 Pears~
 4 delta_richness delta_TNFa    -0.14    -9.78e-1 0.333   -0.406    0.146 Pears~
 5 delta_richness delta_sCD14    0.023    1.58e-1 0.875   -0.260    0.302 Pears~
 6 delta_CRP      delta_richne~ -0.01    -6.90e-2 0.945   -0.290    0.272 Pears~
 7 delta_CRP      delta_CRP      1      Inf       0        1        1     Pears~
 8 delta_CRP      delta_IL6     -0.0057  -2.75e-2 0.978   -0.400    0.390 Pears~
 9 delta_CRP      delta_TNFa     0.39     3.19e+0 0.00238  0.149    0.594 Pears~
10 delta_CRP      delta_sCD14    0.23     1.74e+0 0.0878  -0.0344   0.461 Pears~
# ... with 15 more rows, and abbreviated variable names 1: conf.low,
#   2: conf.high
…
