Beta Diversity and NMDS
…
2022-10-27

$stat
$stat$`DRV/r`
                   Value    Std.Error DF    t-value      p-value
(Intercept) 0.5980993744 0.0393795332 39 15.1880768 5.755095e-18
time_point  0.0002750861 0.0004398721 39  0.6253774 5.353659e-01

$stat$DTG
                  Value    Std.Error DF   t-value      p-value
(Intercept) 0.539108962 0.0392280064 48 13.742961 2.935238e-18
time_point  0.000779198 0.0003995679 48  1.950102 5.701742e-02

$data
# A tibble: 159 × 6
   SampleID basal_id record_id time_point group distance
   <chr>    <chr>    <chr>          <int> <chr>    <dbl>
 1 ADZ4_15  ADZ4_1   A001              24 DTG      0.878
 2 ADZ4_36  ADZ4_1   A001              48 DTG      0.942
 3 ADZ4_93  ADZ4_1   A001              96 DTG      0.982
 4 ADZ4_22  ADZ4_2   A002              24 DRV/r    0.808
 5 ADZ4_45  ADZ4_2   A002              48 DRV/r    0.748
 6 ADZ4_118 ADZ4_2   A002              96 DRV/r    0.709
 7 ADZ4_26  ADZ4_9   A006              24 DTG      0.378
 8 ADZ4_52  ADZ4_9   A006              48 DTG      0.320
 9 ADZ4_34  ADZ4_13  A008              24 DTG      0.960
10 ADZ4_61  ADZ4_13  A008              48 DTG      0.936
# … with 149 more rows
…
